#define letters_width 235
#define letters_height 57
static unsigned char letters_bits[] = {
 0x00,0x00,0xf8,0xff,0x01,0x00,0x00,0x00,0x00,0x00,0x00,0xff,0x3f,0x00,0x00,
 0x00,0x00,0x00,0x80,0xff,0x1f,0xff,0xff,0x01,0x00,0x00,0x00,0x00,0x00,0x00,
 0x00,0x00,0xfe,0xff,0x07,0x00,0x00,0x00,0x00,0x00,0xc0,0xff,0xff,0x00,0x00,
 0x00,0x00,0x00,0x80,0xff,0xff,0xff,0xff,0x01,0x00,0x00,0x00,0x00,0x00,0x00,
 0x00,0x80,0xff,0xff,0x1f,0x00,0x00,0x00,0x00,0x00,0xf8,0xff,0xff,0x03,0x00,
 0x00,0x00,0x00,0xc0,0xff,0xff,0xff,0xff,0x01,0x00,0x00,0x00,0x00,0x00,0x00,
 0x00,0xe0,0xff,0xff,0x7f,0x00,0x00,0x00,0x00,0x00,0xfc,0xff,0xff,0x0f,0x00,
 0x00,0x00,0x00,0xc0,0xff,0xff,0xff,0xff,0x01,0x00,0x00,0x00,0x00,0x00,0x00,
 0x00,0xf0,0x0f,0xf8,0xff,0x00,0x00,0x00,0x00,0x00,0xfe,0xff,0xff,0x1f,0x00,
 0x00,0x00,0x00,0xe0,0xff,0xff,0xff,0xff,0x00,0x00,0x00,0x00,0x00,0x00,0x00,
 0x00,0xf8,0x03,0xf0,0xff,0x01,0x00,0x00,0x00,0x00,0x3f,0x80,0xff,0x3f,0x00,
 0x00,0x00,0x00,0xe0,0xff,0xff,0xff,0xff,0x00,0x00,0x00,0x00,0x00,0x00,0x00,
 0x00,0xfc,0x01,0xe0,0xff,0x01,0x00,0x00,0x00,0x80,0x0f,0x00,0xff,0x3f,0x00,
 0x00,0x00,0x00,0xe0,0xff,0xff,0xff,0x7f,0x00,0x00,0x00,0x00,0x00,0x00,0x00,
 0x00,0xfe,0x01,0xc0,0xff,0x03,0x00,0x00,0x00,0xc0,0x07,0x00,0xfe,0x7f,0x00,
 0x00,0x00,0x00,0xf0,0xff,0xff,0xff,0x7f,0x00,0x00,0x00,0x00,0x00,0x00,0x00,
 0x00,0xfe,0x03,0xc0,0xff,0x03,0x00,0x00,0x00,0xe0,0x07,0x00,0xfc,0x7f,0x00,
 0x00,0x00,0x00,0xf0,0xff,0xff,0xff,0x3f,0x00,0x00,0x00,0x00,0x00,0x00,0x00,
 0x00,0xfe,0x07,0xc0,0xff,0x07,0x00,0x00,0x00,0xe0,0x03,0x00,0xf8,0xff,0x00,
 0x00,0x00,0x00,0xf8,0xff,0xff,0xff,0x1f,0x00,0x00,0x00,0x00,0x00,0x00,0x00,
 0x00,0xff,0x0f,0xc0,0xff,0x07,0x00,0x00,0x00,0xf0,0x03,0x00,0xf8,0xff,0x00,
 0x00,0x00,0x00,0xf8,0xff,0xff,0xff,0x1f,0x00,0x00,0x00,0x00,0x00,0x00,0x00,
 0x00,0xff,0x1f,0x80,0xff,0x07,0x00,0x00,0x00,0xf0,0x07,0x00,0xf8,0xff,0x00,
 0x00,0x00,0x00,0xf8,0x0f,0x00,0x80,0x0f,0x00,0x00,0x00,0x00,0x00,0x00,0x00,
 0x00,0xff,0x1f,0x80,0xff,0x07,0x00,0x00,0x00,0xf0,0x0f,0x00,0xf8,0xff,0x00,
 0x00,0x00,0x00,0xfc,0x01,0x00,0x80,0x0f,0x00,0x00,0x00,0x00,0x00,0x00,0x00,
 0x00,0xff,0x1f,0xc0,0xff,0x07,0x00,0x00,0x00,0xf8,0x3f,0x00,0xf8,0xff,0x00,
 0x00,0x00,0x00,0xfc,0x00,0x00,0xc0,0x07,0x00,0x00,0x00,0x00,0x00,0x00,0x00,
 0x00,0xfe,0x1f,0xc0,0xff,0x07,0x00,0x00,0x00,0xf8,0xff,0x00,0xf8,0xff,0x00,
 0x00,0x00,0x00,0x7e,0x00,0x00,0xe0,0x07,0x00,0x00,0x00,0x00,0x00,0x00,0x00,
 0x00,0xfe,0x1f,0xc0,0xff,0x07,0x00,0x00,0x00,0xf8,0xff,0x01,0xf8,0xff,0x00,
 0x00,0x00,0x00,0x3e,0x00,0x00,0xf0,0x03,0x00,0x00,0x00,0x00,0x00,0x00,0x00,
 0x00,0xfe,0x0f,0xc0,0xff,0x03,0x00,0x00,0x00,0xf8,0xff,0x01,0xf8,0xff,0x00,
 0x00,0x00,0x00,0x3e,0x00,0x00,0xf0,0x01,0x00,0x00,0x00,0x00,0x00,0x00,0x00,
 0x00,0xfc,0x07,0xe0,0xff,0x03,0x00,0x00,0x00,0xf8,0xff,0x01,0xf8,0xff,0x00,
 0x00,0x00,0x00,0x1f,0x00,0x00,0xf8,0x01,0x00,0x00,0x00,0x00,0x00,0x00,0x00,
 0x00,0xf0,0x03,0xe0,0xff,0x03,0x00,0x00,0x00,0xf8,0xff,0x01,0xfc,0xff,0x00,
 0x00,0x00,0x00,0x0f,0x00,0x00,0xfc,0x00,0x00,0x00,0xfc,0x0f,0x00,0x00,0x00,
 0x00,0x00,0x00,0xf0,0xff,0x01,0x00,0x00,0x00,0xf0,0xff,0x01,0xfc,0x7f,0x00,
 0x00,0x00,0x80,0x0f,0x00,0x00,0xfe,0x00,0x00,0x80,0xff,0x3f,0xfc,0x7f,0x00,
 0x00,0x00,0x00,0xf0,0xff,0x00,0x00,0x00,0x00,0xf0,0xff,0x01,0xfe,0x7f,0x00,
 0x00,0x00,0x00,0x07,0x00,0x00,0x7f,0x00,0x00,0xe0,0xff,0x7f,0xfc,0x3f,0x00,
 0x00,0x00,0x00,0xf8,0x7f,0x00,0x00,0x00,0x00,0xf0,0xff,0x01,0xfe,0x3f,0x00,
 0x00,0x00,0x00,0x00,0x00,0x00,0x7f,0x00,0x00,0xf0,0xff,0xff,0xfe,0x3f,0x00,
 0x00,0x00,0x00,0xfc,0x3f,0x00,0x00,0x00,0x00,0xe0,0xff,0x00,0xff,0x3f,0x00,
 0x00,0x00,0x00,0x00,0x00,0x80,0x3f,0x00,0x00,0xfc,0xff,0xf8,0xff,0x3f,0x00,
 0x00,0x00,0x00,0xfe,0x1f,0x00,0x00,0x00,0x00,0xc0,0x7f,0x00,0xff,0x1f,0x00,
 0x00,0x00,0x00,0x00,0x00,0xc0,0x3f,0x00,0x00,0xfe,0x3f,0xe0,0xff,0x1f,0x00,
 0x00,0x80,0x03,0xff,0x07,0x00,0x00,0x00,0x00,0x00,0x3f,0x80,0xff,0x0f,0x00,
 0x00,0x00,0x00,0x00,0x00,0xe0,0x1f,0x00,0x00,0xff,0x1f,0xc0,0xff,0x1f,0x00,
 0x00,0xc0,0xff,0xff,0x01,0x00,0x00,0x00,0x00,0x00,0x00,0xc0,0xff,0x0f,0x00,
 0x00,0x00,0x00,0x00,0x00,0xe0,0x1f,0x00,0x80,0xff,0x0f,0xc0,0xff,0x1f,0x00,
 0x00,0xe0,0xff,0x3f,0x00,0x00,0x00,0x00,0x00,0x00,0x00,0xe0,0xff,0x07,0x00,
 0x00,0x00,0x00,0x00,0x00,0xf0,0x0f,0x00,0xc0,0xff,0x07,0xc0,0xff,0x1f,0x00,
 0x00,0xe0,0xff,0x1f,0x00,0x00,0x00,0x00,0x00,0x00,0x00,0xf0,0xff,0x03,0x00,
 0x00,0x00,0x00,0x00,0x00,0xf8,0x0f,0x00,0xc0,0xff,0x03,0x80,0xff,0x0f,0x00,
 0x00,0xc0,0xff,0xff,0x00,0x00,0x00,0x00,0x00,0x00,0x00,0xf0,0xff,0x01,0x00,
 0x00,0x00,0x00,0x00,0x00,0xfc,0x07,0x00,0xe0,0xff,0x03,0x80,0xff,0x0f,0x00,
 0x00,0x80,0x83,0xff,0x03,0x00,0x00,0x00,0x00,0x00,0x00,0xf8,0x7f,0x00,0x00,
 0x00,0x00,0x00,0x00,0x00,0xfc,0x07,0x00,0xf0,0xff,0x01,0x80,0xff,0x0f,0x00,
 0x00,0x00,0x00,0xff,0x07,0x00,0x00,0x00,0x00,0x00,0x00,0xfe,0x3f,0x00,0x00,
 0x00,0x00,0x00,0x00,0x00,0xfe,0x03,0x00,0xf0,0xff,0x01,0xc0,0xff,0x07,0x00,
 0x00,0x00,0x00,0xfe,0x0f,0x00,0x00,0x00,0x00,0x00,0x00,0xff,0x1f,0x00,0x00,
 0x00,0x00,0x00,0x00,0x00,0xff,0x03,0x00,0xf8,0xff,0x00,0xc0,0xff,0x07,0x00,
 0x00,0x00,0x00,0xfe,0x1f,0x00,0x00,0x00,0x00,0x00,0x80,0xff,0x07,0x00,0x00,
 0x00,0x00,0x00,0x00,0x80,0xff,0x01,0x00,0xf8,0xff,0x00,0xc0,0xff,0x07,0x00,
 0x00,0x00,0x00,0xfc,0x3f,0x00,0x00,0x00,0x00,0x00,0xc0,0xff,0x03,0x00,0x00,
 0x00,0x00,0x00,0x00,0x80,0xff,0x01,0x00,0xfc,0xff,0x00,0xc0,0xff,0x03,0x00,
 0x00,0x00,0x00,0xfc,0x3f,0x00,0x00,0x00,0x00,0x00,0xe0,0xff,0x00,0x00,0x00,
 0x00,0x00,0x00,0x00,0xc0,0xff,0x01,0x00,0xfc,0x7f,0x00,0xc0,0xff,0x03,0x00,
 0x00,0x00,0x00,0xfc,0x3f,0x00,0x00,0x00,0x00,0x00,0xf0,0x3f,0x00,0x00,0x00,
 0x00,0x00,0x00,0x00,0xe0,0xff,0x00,0x00,0xfe,0x7f,0x00,0xe0,0xff,0x03,0x00,
 0xe0,0x01,0x00,0xfc,0x7f,0x00,0x00,0x00,0x00,0x00,0xf8,0x1f,0x00,0x04,0x00,
 0x00,0x00,0x00,0x00,0xf0,0xff,0x00,0x00,0xfe,0x7f,0x00,0xe0,0xff,0x03,0x00,
 0xf8,0x07,0x00,0xfc,0x7f,0x00,0x00,0x00,0x00,0x00,0xfc,0x07,0x00,0x1e,0x00,
 0x00,0x00,0x00,0x00,0xf0,0xff,0x00,0x00,0xfe,0x3f,0x00,0xe0,0xff,0x01,0x00,
 0xfc,0x0f,0x00,0xfc,0x7f,0x00,0x00,0x00,0x00,0x00,0xfe,0x01,0x00,0x1e,0x00,
 0x00,0x00,0x00,0x00,0xf8,0x7f,0x00,0x00,0xfe,0x3f,0x00,0xe0,0xff,0x01,0x00,
 0xfe,0x1f,0x00,0xfc,0x7f,0x00,0x00,0x00,0x00,0x80,0xff,0x00,0x00,0x1f,0x00,
 0x00,0x00,0x00,0x00,0xfc,0x7f,0x00,0x00,0xff,0x3f,0x00,0xf0,0xff,0x01,0x00,
 0xff,0x1f,0x00,0xfc,0x7f,0x00,0x00,0x00,0x00,0xc0,0x3f,0x00,0x00,0x0f,0x00,
 0x00,0x00,0x00,0x00,0xfc,0x7f,0x00,0x00,0xff,0x3f,0x00,0xf0,0xff,0x00,0x00,
 0xff,0x1f,0x00,0xfe,0x7f,0x00,0x00,0x00,0x00,0xe0,0x0f,0x00,0x80,0x0f,0x00,
 0x00,0x00,0x00,0x00,0xfe,0x3f,0x00,0x00,0xff,0x3f,0x00,0xf8,0xff,0x00,0x00,
 0xff,0x1f,0x00,0xfe,0x7f,0x00,0x00,0x00,0x00,0xf0,0x07,0x00,0xc0,0x0f,0x00,
 0x00,0x00,0x00,0x00,0xff,0x3f,0x00,0x00,0xff,0x1f,0x00,0xf8,0xff,0x80,0x01,
 0xff,0x1f,0x00,0xfe,0x3f,0x00,0xf0,0x00,0x00,0xf8,0x01,0x00,0xe0,0x07,0x00,
 0x1e,0x00,0x00,0x00,0xff,0x3f,0x00,0x00,0xff,0x1f,0x00,0xf8,0x7f,0xc0,0x07,
 0xff,0x1f,0x00,0xfe,0x3f,0x00,0xfc,0x03,0x00,0xfc,0x00,0x00,0xf0,0x07,0x80,
 0x7f,0x00,0x00,0x80,0xff,0x3f,0x00,0x00,0xff,0x1f,0x00,0xfc,0x7f,0xe0,0x03,
 0xff,0x0f,0x00,0xff,0x3f,0x00,0xfe,0x07,0x00,0xfe,0xff,0xff,0xff,0x03,0xc0,
 0xff,0x00,0x00,0x80,0xff,0x1f,0x00,0x00,0xff,0x1f,0x00,0xfc,0x7f,0xe0,0x01,
 0xff,0x0f,0x00,0xff,0x1f,0x00,0xff,0x0f,0x00,0xff,0xff,0xff,0xff,0x03,0xe0,
 0xff,0x01,0x00,0xc0,0xff,0x1f,0x00,0x00,0xfe,0x1f,0x00,0xfe,0x7f,0xf0,0x01,
 0xff,0x03,0x80,0xff,0x1f,0x00,0xff,0x0f,0x80,0xff,0xff,0xff,0xff,0x03,0xe0,
 0xff,0x01,0x00,0xc0,0xff,0x1f,0x00,0x00,0xfe,0x1f,0x00,0xff,0x3f,0xf8,0x00,
 0xff,0x00,0x80,0xff,0x0f,0x80,0xff,0x1f,0xc0,0xff,0xff,0xff,0xff,0x01,0xf0,
 0xff,0x03,0x00,0xc0,0xff,0x1f,0x00,0x00,0xfe,0x3f,0x00,0xff,0x3f,0x7c,0x00,
 0xfe,0x00,0xc0,0xff,0x07,0x80,0xff,0x1f,0xe0,0xff,0xff,0xff,0xff,0x01,0xf0,
 0xff,0x03,0x00,0xc0,0xff,0x1f,0x00,0x00,0xfc,0x3f,0x80,0xff,0x3f,0x3e,0x00,
 0xfe,0x00,0xe0,0xff,0x03,0x80,0xff,0x1f,0xf0,0xff,0xff,0xff,0xff,0x01,0xf0,
 0xff,0x03,0x00,0xc0,0xff,0x0f,0x00,0x00,0xfc,0x7f,0xe0,0xff,0xff,0x3f,0x00,
 0xfc,0x01,0xf0,0xff,0x01,0x80,0xff,0x1f,0xf0,0xff,0xff,0xff,0xff,0x00,0xf0,
 0xff,0x03,0x00,0xc0,0xff,0x0f,0x00,0x00,0xf8,0xff,0xff,0xfb,0xff,0x1f,0x00,
 0xf8,0x07,0xfc,0xff,0x00,0x80,0xff,0x0f,0xf8,0xff,0xff,0xff,0xff,0x00,0xf0,
 0xff,0x01,0x00,0xc0,0xff,0x0f,0x00,0x00,0xf0,0xff,0xff,0xf9,0xff,0x0f,0x00,
 0xf0,0xff,0xff,0x7f,0x00,0x00,0xff,0x0f,0xf8,0xff,0xff,0xff,0xff,0x00,0xe0,
 0xff,0x01,0x00,0xc0,0xff,0x07,0x00,0x00,0xf0,0xff,0xff,0xf0,0xff,0x07,0x00,
 0xe0,0xff,0xff,0x1f,0x00,0x00,0xff,0x07,0xfc,0xff,0xff,0xff,0x7f,0x00,0xe0,
 0xff,0x00,0x00,0x80,0xff,0x07,0x00,0x00,0xc0,0xff,0x7f,0xf0,0xff,0x01,0x00,
 0x80,0xff,0xff,0x07,0x00,0x00,0xfe,0x03,0xfc,0xff,0xff,0xff,0x7f,0x00,0xc0,
 0x7f,0x00,0x00,0x00,0xff,0x03,0x00,0x00,0x80,0xff,0x1f,0xe0,0xff,0x00,0x00,
 0x00,0xfc,0x7f,0x00,0x00,0x00,0xf8,0x01,0x00,0x00,0x00,0x00,0x00,0x00,0x00,
 0x3f,0x00,0x00,0x00,0xfe,0x00,0x00,0x00,0x00,0xfc,0x07,0x80,0x3f,0x00,0x00};
